<?xml version="1.0" encoding="utf-8"?>
<!-- Generator: Adobe Illustrator 25.0.0, SVG Export Plug-In . SVG Version: 6.00 Build 0)  -->
<svg version="1.1" id="Calque_1" xmlns="http://www.w3.org/2000/svg" xmlns:xlink="http://www.w3.org/1999/xlink" x="0px" y="0px"
	 viewBox="0 0 250 80" style="enable-background:new 0 0 250 80;" xml:space="preserve">
<style type="text/css">
	.st0{fill:#004F8B;}
	.st1{fill:#EA5254;}
</style>
<g>
	<g>
		<path class="st0" d="M73.27,70.24c-0.24-0.63-0.47-1.23-0.67-1.81s-0.4-1.14-0.59-1.69h-6.24c-0.21,0.55-0.42,1.12-0.63,1.7
			c-0.2,0.58-0.42,1.18-0.65,1.8H63.2c0.48-1.33,0.94-2.57,1.37-3.71c0.43-1.15,0.85-2.23,1.27-3.26s0.83-2.01,1.24-2.95
			c0.41-0.94,0.84-1.89,1.29-2.84h1.1c0.45,0.95,0.88,1.89,1.28,2.84c0.4,0.95,0.81,1.93,1.23,2.95c0.42,1.02,0.84,2.11,1.27,3.26
			c0.43,1.15,0.9,2.39,1.41,3.71H73.27z M68.88,58.91c-0.46,1.06-0.91,2.14-1.35,3.23c-0.44,1.09-0.89,2.27-1.36,3.53h5.45
			c-0.47-1.27-0.93-2.45-1.38-3.54C69.8,61.04,69.34,59.97,68.88,58.91z"/>
		<path class="st0" d="M86.67,70.52c-0.82,0-1.59-0.15-2.29-0.44c-0.71-0.29-1.32-0.72-1.84-1.29c-0.52-0.57-0.93-1.26-1.23-2.09
			c-0.3-0.83-0.45-1.78-0.45-2.85s0.16-2.02,0.49-2.85c0.33-0.83,0.76-1.53,1.3-2.09c0.54-0.57,1.17-0.99,1.88-1.28
			c0.71-0.29,1.46-0.43,2.23-0.43c0.48,0,0.91,0.03,1.31,0.09s0.74,0.14,1.03,0.23c0.29,0.09,0.55,0.18,0.76,0.28
			c0.21,0.09,0.37,0.18,0.48,0.25l-0.41,1.09c-0.31-0.18-0.7-0.37-1.17-0.54c-0.47-0.18-1.06-0.27-1.76-0.27
			c-0.8,0-1.5,0.14-2.09,0.41c-0.6,0.27-1.1,0.65-1.5,1.14s-0.71,1.07-0.91,1.75s-0.3,1.42-0.3,2.25c0,0.85,0.1,1.61,0.3,2.29
			s0.5,1.26,0.89,1.74c0.39,0.48,0.88,0.85,1.45,1.11c0.57,0.26,1.23,0.39,1.96,0.39c0.81,0,1.49-0.08,2.04-0.23
			c0.55-0.15,0.96-0.31,1.24-0.47l0.35,1.07c-0.09,0.06-0.23,0.13-0.44,0.21c-0.21,0.08-0.47,0.16-0.79,0.25
			c-0.32,0.09-0.69,0.16-1.11,0.21C87.65,70.49,87.19,70.52,86.67,70.52z"/>
		<path class="st0" d="M105.65,57.48h1.25v12.77h-1.25v-6.13h-6.93v6.13h-1.25V57.48h1.25v5.55h6.93V57.48z"/>
		<path class="st0" d="M123.7,70.24c-0.24-0.63-0.47-1.23-0.67-1.81c-0.2-0.58-0.4-1.14-0.59-1.69h-6.24
			c-0.21,0.55-0.42,1.12-0.63,1.7c-0.2,0.58-0.42,1.18-0.65,1.8h-1.31c0.48-1.33,0.94-2.57,1.37-3.71c0.43-1.15,0.85-2.23,1.27-3.26
			c0.42-1.02,0.83-2.01,1.24-2.95c0.41-0.94,0.84-1.89,1.29-2.84h1.1c0.45,0.95,0.88,1.89,1.28,2.84c0.4,0.95,0.81,1.93,1.23,2.95
			c0.42,1.02,0.84,2.11,1.26,3.26c0.43,1.15,0.9,2.39,1.41,3.71H123.7z M119.31,58.91c-0.46,1.06-0.91,2.14-1.35,3.23
			c-0.44,1.09-0.89,2.27-1.36,3.53h5.45c-0.47-1.27-0.93-2.45-1.38-3.54C120.22,61.04,119.77,59.97,119.31,58.91z"/>
		<path class="st0" d="M139.9,57.48v1.09h-4.09v11.68h-1.25V58.56h-4.09v-1.09H139.9z"/>
		<path class="st0" d="M154.71,63.17h4.16v1.16h-4.16V63.17z"/>
		<path class="st0" d="M174.94,57.48c0.37,1.09,0.72,2.13,1.07,3.1c0.35,0.98,0.68,1.92,1.02,2.83c0.33,0.92,0.67,1.81,1.01,2.69
			c0.34,0.88,0.71,1.77,1.11,2.66c0.38-0.88,0.75-1.76,1.09-2.64c0.35-0.88,0.69-1.78,1.03-2.69c0.34-0.91,0.68-1.86,1.02-2.84
			c0.34-0.98,0.7-2.02,1.06-3.12h1.33c-0.56,1.62-1.07,3.03-1.53,4.24s-0.87,2.31-1.25,3.3s-0.75,1.89-1.1,2.72s-0.72,1.67-1.1,2.51
			h-1.18c-0.37-0.85-0.74-1.69-1.09-2.52c-0.36-0.83-0.73-1.73-1.12-2.71s-0.81-2.08-1.26-3.29c-0.45-1.22-0.96-2.63-1.52-4.24
			H174.94z"/>
		<path class="st0" d="M191.39,70.24V57.48h7.37v1.09h-6.12V63h5.45v1.07h-5.45v5.08h6.6v1.09H191.39z"/>
		<path class="st0" d="M215.19,70.24c-0.24-0.43-0.53-0.93-0.89-1.51c-0.36-0.58-0.75-1.2-1.19-1.85c-0.44-0.65-0.89-1.33-1.37-2.02
			c-0.48-0.7-0.95-1.37-1.42-2.03c-0.47-0.66-0.93-1.27-1.38-1.85c-0.45-0.58-0.85-1.07-1.2-1.49v10.75h-1.23V57.48h1
			c0.63,0.7,1.3,1.51,2.01,2.42c0.72,0.92,1.42,1.85,2.11,2.8c0.69,0.95,1.33,1.88,1.93,2.79c0.6,0.91,1.09,1.7,1.47,2.38V57.48
			h1.23v12.77H215.19z"/>
		<path class="st0" d="M232.55,57.48v1.09h-4.09v11.68h-1.25V58.56h-4.09v-1.09H232.55z"/>
		<path class="st0" d="M239.42,70.24V57.48h7.37v1.09h-6.12V63h5.45v1.07h-5.45v5.08h6.6v1.09H239.42z"/>
	</g>
	<g>
		<path class="st0" d="M75.35,43v3.29H63.98V29.27h3.83V43H75.35z"/>
		<path class="st0" d="M77.81,46.29V29.27h11.5v3.22h-7.66v3.34h6.8v3.14h-6.8v4.1h8.23v3.22H77.81z"/>
		<path class="st0" d="M103.23,43.37c0.54,0,0.99-0.04,1.34-0.14c0.35-0.09,0.63-0.21,0.85-0.37c0.21-0.15,0.36-0.34,0.44-0.55
			c0.08-0.21,0.12-0.45,0.12-0.71c0-0.56-0.26-1.02-0.79-1.39c-0.53-0.37-1.42-0.77-2.7-1.19c-0.56-0.2-1.11-0.42-1.67-0.68
			c-0.56-0.25-1.06-0.57-1.5-0.96c-0.44-0.38-0.8-0.85-1.08-1.4c-0.28-0.55-0.42-1.22-0.42-2c0-0.79,0.15-1.49,0.44-2.13
			c0.3-0.63,0.71-1.17,1.25-1.61c0.54-0.44,1.19-0.78,1.96-1.02c0.77-0.24,1.64-0.36,2.6-0.36c1.15,0,2.14,0.12,2.97,0.37
			s1.52,0.52,2.06,0.81l-1.1,3.02c-0.47-0.25-1-0.46-1.58-0.65c-0.58-0.19-1.28-0.28-2.1-0.28c-0.92,0-1.58,0.13-1.98,0.38
			c-0.4,0.25-0.6,0.64-0.6,1.17c0,0.31,0.07,0.57,0.22,0.79c0.15,0.21,0.36,0.41,0.63,0.58c0.27,0.17,0.58,0.33,0.93,0.47
			c0.35,0.14,0.74,0.28,1.17,0.43c0.88,0.33,1.65,0.65,2.31,0.97c0.65,0.32,1.2,0.69,1.63,1.12c0.43,0.43,0.76,0.93,0.97,1.5
			c0.21,0.57,0.32,1.27,0.32,2.09c0,1.59-0.56,2.82-1.67,3.7c-1.11,0.88-2.79,1.31-5.04,1.31c-0.75,0-1.43-0.04-2.04-0.13
			c-0.61-0.09-1.14-0.2-1.61-0.33c-0.47-0.13-0.87-0.27-1.2-0.42c-0.34-0.15-0.62-0.29-0.85-0.42l1.08-3.05
			c0.51,0.28,1.13,0.53,1.88,0.75C101.24,43.25,102.15,43.37,103.23,43.37z"/>
		<path class="st0" d="M118,29.07c2.54,0,4.49,0.45,5.85,1.34c1.36,0.89,2.04,2.35,2.04,4.39c0,2.05-0.69,3.52-2.06,4.43
			c-1.38,0.91-3.34,1.36-5.9,1.36h-1.2v5.7h-3.83V29.51c0.84-0.16,1.72-0.28,2.65-0.34C116.47,29.1,117.29,29.07,118,29.07z
			 M118.24,32.34c-0.28,0-0.55,0.01-0.82,0.02c-0.27,0.02-0.5,0.03-0.7,0.05v4.91h1.2c1.33,0,2.32-0.18,3-0.54
			c0.67-0.36,1.01-1.03,1.01-2.01c0-0.47-0.09-0.87-0.26-1.18s-0.42-0.56-0.74-0.75c-0.32-0.19-0.71-0.32-1.17-0.39
			C119.31,32.37,118.8,32.34,118.24,32.34z"/>
		<g>
			<polygon class="st1" points="137.55,24.79 135.3,22.73 131.83,26.71 133.51,28.21 			"/>
			<polygon class="st1" points="132.54,32.48 140.2,32.48 140.2,29.27 128.71,29.27 128.71,32.49 132.54,32.49 			"/>
			<g>
				<polygon class="st1" points="132.54,38.97 132.54,38.97 139.34,38.97 139.34,35.82 139.24,35.82 139.24,35.83 128.71,35.83 
					128.71,38.97 				"/>
				<polygon class="st1" points="134.74,43.07 132.54,43.07 128.71,43.07 128.71,46.29 140.77,46.29 140.77,43.07 				"/>
			</g>
		</g>
		<g>
			<polygon class="st1" points="239.3,32.48 246.96,32.48 246.96,29.27 235.47,29.27 235.47,32.49 239.3,32.49 			"/>
			<g>
				<polygon class="st1" points="239.3,38.97 239.3,38.97 246.1,38.97 246.1,35.82 246,35.82 246,35.83 235.47,35.83 235.47,38.97 
									"/>
				<polygon class="st1" points="241.5,43.07 239.3,43.07 235.47,43.07 235.47,46.29 247.53,46.29 247.53,43.07 				"/>
			</g>
		</g>
		<path class="st0" d="M151.36,46.63c-2.77,0-4.88-0.77-6.33-2.31c-1.45-1.54-2.17-3.73-2.17-6.56c0-1.41,0.22-2.67,0.66-3.77
			c0.44-1.11,1.05-2.04,1.82-2.8c0.77-0.76,1.69-1.34,2.75-1.73c1.07-0.39,2.22-0.59,3.46-0.59c0.72,0,1.38,0.05,1.96,0.16
			c0.59,0.11,1.11,0.23,1.55,0.37c0.44,0.14,0.81,0.28,1.1,0.43c0.3,0.15,0.51,0.26,0.64,0.34l-1.11,3.1
			c-0.52-0.28-1.13-0.52-1.83-0.71c-0.7-0.2-1.49-0.3-2.37-0.3c-0.59,0-1.17,0.1-1.73,0.3c-0.56,0.2-1.07,0.51-1.5,0.95
			c-0.43,0.43-0.78,1-1.04,1.68c-0.26,0.69-0.39,1.52-0.39,2.51c0,0.79,0.09,1.52,0.26,2.2c0.17,0.68,0.45,1.27,0.83,1.76
			c0.39,0.49,0.89,0.88,1.51,1.17c0.62,0.29,1.38,0.43,2.26,0.43c0.56,0,1.06-0.03,1.5-0.1c0.44-0.06,0.83-0.14,1.18-0.23
			c0.34-0.09,0.65-0.19,0.91-0.31c0.26-0.12,0.5-0.22,0.71-0.32l1.06,3.07c-0.54,0.33-1.3,0.62-2.28,0.88
			C153.79,46.5,152.65,46.63,151.36,46.63z"/>
		<path class="st0" d="M159.51,29.27h3.83v17.02h-3.83V29.27z"/>
		<path class="st0" d="M178.69,46.29c-0.19-0.59-0.39-1.2-0.61-1.82c-0.22-0.62-0.44-1.24-0.65-1.86h-6.65
			c-0.21,0.62-0.43,1.24-0.65,1.87c-0.22,0.62-0.42,1.23-0.6,1.82h-3.98c0.64-1.83,1.25-3.53,1.82-5.09
			c0.57-1.55,1.14-3.02,1.69-4.4c0.55-1.37,1.09-2.68,1.63-3.92c0.53-1.24,1.09-2.44,1.66-3.62h3.63c0.56,1.18,1.11,2.39,1.65,3.62
			c0.54,1.24,1.09,2.54,1.64,3.92c0.55,1.38,1.11,2.84,1.69,4.4c0.58,1.56,1.19,3.25,1.83,5.09H178.69z M174.09,33.12
			c-0.09,0.25-0.21,0.59-0.38,1.01c-0.17,0.43-0.35,0.92-0.56,1.48c-0.21,0.56-0.45,1.17-0.71,1.84c-0.26,0.67-0.52,1.37-0.79,2.11
			h4.87c-0.26-0.74-0.51-1.44-0.76-2.12c-0.24-0.67-0.48-1.29-0.7-1.84c-0.22-0.56-0.41-1.05-0.58-1.48
			C174.33,33.7,174.19,33.36,174.09,33.12z"/>
		<path class="st0" d="M196.36,43v3.29h-11.37V29.27h3.83V43H196.36z"/>
		<path class="st0" d="M198.81,29.27h3.83v17.02h-3.83V29.27z"/>
		<path class="st0" d="M211.22,43.37c0.54,0,0.99-0.04,1.34-0.14c0.35-0.09,0.63-0.21,0.85-0.37c0.21-0.15,0.36-0.34,0.44-0.55
			c0.08-0.21,0.12-0.45,0.12-0.71c0-0.56-0.26-1.02-0.79-1.39c-0.53-0.37-1.42-0.77-2.7-1.19c-0.56-0.2-1.11-0.42-1.67-0.68
			c-0.56-0.25-1.06-0.57-1.5-0.96c-0.44-0.38-0.8-0.85-1.08-1.4c-0.28-0.55-0.42-1.22-0.42-2c0-0.79,0.15-1.49,0.44-2.13
			c0.3-0.63,0.71-1.17,1.25-1.61c0.54-0.44,1.19-0.78,1.96-1.02c0.77-0.24,1.64-0.36,2.6-0.36c1.15,0,2.14,0.12,2.97,0.37
			s1.52,0.52,2.06,0.81l-1.1,3.02c-0.47-0.25-1-0.46-1.58-0.65c-0.58-0.19-1.28-0.28-2.1-0.28c-0.92,0-1.58,0.13-1.98,0.38
			c-0.4,0.25-0.6,0.64-0.6,1.17c0,0.31,0.07,0.57,0.22,0.79c0.15,0.21,0.36,0.41,0.63,0.58c0.27,0.17,0.58,0.33,0.93,0.47
			c0.35,0.14,0.74,0.28,1.17,0.43c0.88,0.33,1.65,0.65,2.31,0.97c0.65,0.32,1.2,0.69,1.63,1.12c0.43,0.43,0.76,0.93,0.97,1.5
			c0.21,0.57,0.32,1.27,0.32,2.09c0,1.59-0.56,2.82-1.67,3.7c-1.11,0.88-2.79,1.31-5.04,1.31c-0.75,0-1.43-0.04-2.04-0.13
			c-0.61-0.09-1.14-0.2-1.61-0.33c-0.47-0.13-0.87-0.27-1.2-0.42c-0.34-0.15-0.62-0.29-0.85-0.42l1.08-3.05
			c0.51,0.28,1.13,0.53,1.88,0.75C209.23,43.25,210.14,43.37,211.22,43.37z"/>
		<path class="st0" d="M233.01,29.27v3.27h-5.13v13.76h-3.83V32.53h-5.13v-3.27H233.01z"/>
	</g>
	<g>
		<rect x="40.09" y="23.87" class="st0" width="7.37" height="47.14"/>
		<polygon class="st0" points="10.63,38.79 3.26,38.79 3.26,70.91 6.1,70.91 10.63,70.91 33.95,70.91 33.95,63.63 10.63,63.63 		"/>
		<polygon class="st1" points="27.54,2.11 27.04,2.69 27.04,2.69 1.04,33.67 10.66,33.67 28.45,12.47 35.99,18.75 47.46,18.75 		"/>
	</g>
</g>
</svg>
